…
ℹ Use `spec()` to retrieve the full column specification for this data.
ℹ Specify the column types or set `show_col_types = FALSE` to quiet this message.
# A tibble: 200 × 11
   CITY_ASCII WEATHER TEMPERATURE VISIBILITY HUMIDITY WIND_SPEED SEASONS HOURS
   <chr>      <chr>         <dbl>      <int>    <int>      <dbl> <chr>   <dbl>
 1 Seoul      Rain           15.8      10000       82       3.1  SPRING     15
 2 Seoul      Rain           15.4      10000       83       2.98 SPRING     18
 3 Seoul      Clouds         14.1      10000       81       2    SPRING     21
 4 Seoul      Clouds         13.6      10000       74       2.36 SPRING      0
 5 Seoul      Clouds         14.8      10000       62       2.37 SPRING      3
 6 Seoul      Clouds         15.8      10000       60       2.74 SPRING      6
 7 Seoul      Clouds         16.0      10000       60       2.65 SPRING      9
 8 Seoul      Clouds         15.1      10000       66       1.63 SPRING     12
 9 Seoul      Clear          13.5      10000       75       1.51 SPRING     15
10 Seoul      Clear          12.5      10000       76       0.75 SPRING     18
# ℹ 190 more rows
# ℹ 3 more variables: FORECASTDATETIME <chr>, LABEL <chr>, DETAILED_LABEL <chr>
# ℹ Use `print(n = ...)` to see more rows
…
> 
> library(shiny)
> runApp()

Listening on http://127.0.0.1:7541
Rows: 5 Columns: 12                                                                       
── Column specification ────────────────────────────────────────────────────────────────────
Delimiter: ","
chr (7): CITY, CITY_ASCII, COUNTRY, ISO2, ISO3, ADMIN_NAME, CAPITAL
dbl (5): Index, LAT, LNG, POPULATION, ID

ℹ Use `spec()` to retrieve the full column specification for this data.
ℹ Specify the column types or set `show_col_types = FALSE` to quiet this message.
# A tibble: 200 × 11
   CITY_ASCII WEATHER TEMPERATURE VISIBILITY HUMIDITY WIND_SPEED SEASONS HOURS
   <chr>      <chr>         <dbl>      <int>    <int>      <dbl> <chr>   <dbl>
 1 Seoul      Rain           15.8      10000       82       3.1  SPRING     15
 2 Seoul      Rain           15.4      10000       83       2.98 SPRING     18
 3 Seoul      Clouds         14.1      10000       81       2    SPRING     21
 4 Seoul      Clouds         13.6      10000       74       2.36 SPRING      0
 5 Seoul      Clouds         14.8      10000       62       2.37 SPRING      3
 6 Seoul      Clouds         15.8      10000       60       2.74 SPRING      6
 7 Seoul      Clouds         16.0      10000       60       2.65 SPRING      9
 8 Seoul      Clouds         15.1      10000       66       1.63 SPRING     12
 9 Seoul      Clear          13.5      10000       75       1.51 SPRING     15
10 Seoul      Clear          12.5      10000       76       0.75 SPRING     18
# ℹ 190 more rows
# ℹ 3 more variables: FORECASTDATETIME <chr>, LABEL <chr>, DETAILED_LABEL <chr>
# ℹ Use `print(n = ...)` to see more rows
…
